VHDL/Summer 2021/Project_1/Problem1/simulation/qsim/askhsh1.msim.vcd
$comment
	File created using the following command:
		vcd file askhsh1.msim.vcd -direction
$end
$date
	Wed Apr 14 12:29:10 2021
$end
$version
	ModelSim Version 10.5b
$end
$timescale
	1ps
$end

$scope module askhsh1_vhd_vec_tst $end
$var wire 1 ! f $end
$var wire 1 " x1 $end
$var wire 1 # x2 $end
$var wire 1 $ x3 $end
$var wire 1 % x4 $end
$var wire 1 & x5 $end

$scope module i1 $end
$var wire 1 ' gnd $end
$var wire 1 ( vcc $end
$var wire 1 ) unknown $end
$var wire 1 * devoe $end
$var wire 1 + devclrn $end
$var wire 1 , devpor $end
$var wire 1 - ww_devoe $end
$var wire 1 . ww_devclrn $end
$var wire 1 / ww_devpor $end
$var wire 1 0 ww_x1 $end
$var wire 1 1 ww_x2 $end
$var wire 1 2 ww_x3 $end
$var wire 1 3 ww_x4 $end
$var wire 1 4 ww_x5 $end
$var wire 1 5 ww_f $end
$var wire 1 6 \x5~combout\ $end
$var wire 1 7 \x3~combout\ $end
$var wire 1 8 \x4~combout\ $end
$var wire 1 9 \U12|out1~0_combout\ $end
$var wire 1 : \x1~combout\ $end
$var wire 1 ; \x2~combout\ $end
$var wire 1 < \U12|out1~1_combout\ $end
$upscope $end
$upscope $end
$enddefinitions $end
#0
$dumpvars
1!
0"
0#
0$
0%
0&
0'
1(
x)
1*
1+
1,
1-
1.
1/
00
01
02
03
04
15
06
07
08
09
0:
0;
1<
$end
#10000
1&
14
16
#20000
0&
1%
04
13
18
06
#30000
1&
14
16
19
0<
05
0!
#40000
0&
0%
1$
04
03
12
17
08
06
09
1<
15
1!
#50000
1&
14
16
#60000
0&
1%
04
13
18
06
19
0<
05
0!
#70000
1&
14
16
#80000
0&
0%
0$
1#
04
03
02
11
1;
07
08
06
09
1<
15
1!
#90000
1&
14
16
0<
05
0!
#100000
0&
1%
04
13
18
06
1<
15
1!
#110000
1&
14
16
19
0<
05
1<
0!
15
1!
#120000
0&
0%
1$
04
03
12
17
08
06
09
#130000
1&
14
16
0<
05
0!
#140000
0&
1%
04
13
18
06
1<
19
15
1!
#150000
1&
14
16
#160000
0&
0%
0$
0#
1"
04
03
02
01
10
1:
0;
07
08
06
09
0<
05
1<
0!
15
1!
#170000
1&
14
16
0<
05
0!
#180000
0&
1%
04
13
18
06
1<
15
1!
#190000
1&
14
16
19
0<
05
0!
#200000
0&
0%
1$
04
03
12
17
08
06
09
1<
15
1!
#210000
1&
14
16
0<
05
0!
#220000
0&
1%
04
13
18
06
1<
19
0<
15
1!
05
0!
#230000
1&
14
16
#240000
0&
0%
0$
1#
04
03
02
11
1;
07
08
06
09
1<
15
1!
#250000
1&
14
16
0<
05
0!
#260000
0&
1%
04
13
18
06
1<
15
1!
#270000
1&
14
16
19
0<
05
1<
0!
15
1!
#280000
0&
0%
1$
04
03
12
17
08
06
0<
09
1<
05
0!
15
1!
#290000
1&
14
16
0<
05
0!
#300000
0&
1%
04
13
18
06
1<
19
0<
15
1!
05
0!
#310000
1&
14
16
1<
15
1!
