VHDL/Summer 2021/Project_1/Problem3/simulation/qsim/Problem3.msim.vcd
$comment
	File created using the following command:
		vcd file Problem3.msim.vcd -direction
$end
$date
	Sun Apr 04 14:13:32 2021
$end
$version
	ModelSim Version 10.5b
$end
$timescale
	1ps
$end

$scope module problem3_vhd_vec_tst $end
$var wire 1 ! f $end
$var wire 1 " x1 $end
$var wire 1 # x2 $end
$var wire 1 $ x3 $end
$var wire 1 % x4 $end

$scope module i1 $end
$var wire 1 & gnd $end
$var wire 1 ' vcc $end
$var wire 1 ( unknown $end
$var wire 1 ) devoe $end
$var wire 1 * devclrn $end
$var wire 1 + devpor $end
$var wire 1 , ww_devoe $end
$var wire 1 - ww_devclrn $end
$var wire 1 . ww_devpor $end
$var wire 1 / ww_x1 $end
$var wire 1 0 ww_x2 $end
$var wire 1 1 ww_x3 $end
$var wire 1 2 ww_x4 $end
$var wire 1 3 ww_f $end
$var wire 1 4 \x3~combout\ $end
$var wire 1 5 \x4~combout\ $end
$var wire 1 6 \x1~combout\ $end
$var wire 1 7 \x2~combout\ $end
$var wire 1 8 \f~0_combout\ $end
$upscope $end
$upscope $end
$enddefinitions $end
#0
$dumpvars
0!
0"
0#
0$
0%
0&
1'
x(
1)
1*
1+
1,
1-
1.
0/
00
01
02
03
04
05
06
07
08
$end
#10000
1%
12
15
#20000
0%
1$
02
11
14
05
#30000
1%
12
15
18
13
1!
#40000
0%
0$
1#
02
01
10
17
04
05
#50000
1%
12
15
#60000
0%
1$
02
11
14
05
#70000
1%
12
15
#80000
0%
0$
0#
1"
02
01
00
1/
16
07
04
05
08
03
0!
#90000
1%
12
15
#100000
0%
1$
02
11
14
05
#110000
1%
12
15
18
13
1!
#120000
0%
0$
1#
02
01
10
17
04
05
08
03
0!
#130000
1%
12
15
#140000
0%
1$
02
11
14
05
#150000
1%
12
15
18
13
1!
