VHDL/Summer 2021/Project_1/Problem2/simulation/qsim/Problem2.msim.vcd
$comment
	File created using the following command:
		vcd file Problem2.msim.vcd -direction
$end
$date
	Sat Apr 03 16:53:48 2021
$end
$version
	ModelSim Version 10.5b
$end
$timescale
	1ps
$end

$scope module Problem2_vlg_vec_tst $end
$var reg 1 ! x1 $end
$var reg 1 " x2 $end
$var reg 1 # x3 $end
$var reg 1 $ x4 $end
$var wire 1 % f $end

$scope module i1 $end
$var wire 1 & gnd $end
$var wire 1 ' vcc $end
$var wire 1 ( unknown $end
$var tri1 1 ) devclrn $end
$var tri1 1 * devpor $end
$var tri1 1 + devoe $end
$var wire 1 , x1~combout $end
$var wire 1 - x4~combout $end
$var wire 1 . x3~combout $end
$var wire 1 / x2~combout $end
$var wire 1 0 SOP~0_combout $end
$upscope $end
$upscope $end
$enddefinitions $end
#0
$dumpvars
0!
0"
0#
0$
0%
0&
1'
x(
1)
1*
1+
0,
0-
0.
0/
00
$end
#10000
1$
1-
#20000
1#
0$
1.
0-
#30000
1$
1-
#40000
1"
0#
0$
1/
0.
0-
#50000
1$
1-
#60000
1#
0$
1.
0-
#70000
1$
1-
10
1%
#80000
1!
0"
0#
0$
1,
0/
0.
0-
00
0%
#90000
1$
1-
#100000
1#
0$
1.
0-
#110000
1$
1-
10
1%
#120000
1"
0#
0$
1/
0.
0-
00
0%
#130000
1$
1-
10
1%
#140000
1#
0$
1.
0-
#150000
1$
1-
00
0%
